…
## Q3b
```r
# A tibble: 76 x 3
# Groups:   year [2]
    year model              hwy.median
   <int> <fct>                   <dbl>
 1  1999 4runner 4wd              19.5
 2  1999 a4                       27.5
 3  1999 a4 quattro               25  
 4  1999 a6 quattro               24  
 5  1999 altima                   28  
 6  1999 c1500 suburban 2wd       17  
 7  1999 camry                    26.5
 8  1999 camry solara             26.5
 9  1999 caravan 2wd              22  
10  1999 civic                    32  
# … with 66 more rows
```
…
